Curso de R · Junio 2026 – Sesión 3
…
Verbo 1

select() · elegir columnas

select(): elegir columnas por nombre

select(pinguinos, species, body_mass_g, sex)

# A tibble: 333 × 3
   species body_mass_g sex   
   <fct>         <int> <fct> 
 1 Adelie         3750 male  
 2 Adelie         3800 female
 3 Adelie         3250 female
 4 Adelie         3450 female
 5 Adelie         3650 male  
 6 Adelie         3625 female
 7 Adelie         4675 male  
 8 Adelie         3200 female
 9 Adelie         3800 male  
10 Adelie         4400 male  
# ℹ 323 more rows

select(): excluir con -

select(pinguinos, -year, -island)

# A tibble: 333 × 6
   species bill_length_mm bill_depth_mm flipper_length_mm body_mass_g sex   
   <fct>            <dbl>         <dbl>             <int>       <int> <fct> 
 1 Adelie            39.1          18.7               181        3750 male  
 2 Adelie            39.5          17.4               186        3800 female
 3 Adelie            40.3          18                 195        3250 female
 4 Adelie            36.7          19.3               193        3450 female
 5 Adelie            39.3          20.6               190        3650 male  
 6 Adelie            38.9          17.8               181        3625 female
 7 Adelie            39.2          19.6               195        4675 male  
 8 Adelie            41.1          17.6               182        3200 female
 9 Adelie            38.6          21.2               191        3800 male  
10 Adelie            34.6          21.1               198        4400 male  
# ℹ 323 more rows

select(): patrones de nombre

starts_with(), ends_with() y contains() seleccionan columnas según su nombre:

select(pinguinos, species, starts_with("bill"))

# A tibble: 333 × 3
   species bill_length_mm bill_depth_mm
   <fct>            <dbl>         <dbl>
 1 Adelie            39.1          18.7
 2 Adelie            39.5          17.4
 3 Adelie            40.3          18  
 4 Adelie            36.7          19.3
 5 Adelie            39.3          20.6
 6 Adelie            38.9          17.8
 7 Adelie            39.2          19.6
 8 Adelie            41.1          17.6
 9 Adelie            38.6          21.2
10 Adelie            34.6          21.1
# ℹ 323 more rows

select(pinguinos, species, ends_with("_mm"))

# A tibble: 333 × 4
   species bill_length_mm bill_depth_mm flipper_length_mm
   <fct>            <dbl>         <dbl>             <int>
 1 Adelie            39.1          18.7               181
 2 Adelie            39.5          17.4               186
 3 Adelie            40.3          18                 195
 4 Adelie            36.7          19.3               193
 5 Adelie            39.3          20.6               190
 6 Adelie            38.9          17.8               181
 7 Adelie            39.2          19.6               195
 8 Adelie            41.1          17.6               182
 9 Adelie            38.6          21.2               191
10 Adelie            34.6          21.1               198
# ℹ 323 more rows

rename(): renombrar columnas

rename(pinguinos, especie = species, masa_g = body_mass_g)

# A tibble: 333 × 8
   especie island    bill_length_mm bill_depth_mm flipper_length_mm masa_g sex  
   <fct>   <fct>              <dbl>         <dbl>             <int>  <int> <fct>
 1 Adelie  Torgersen           39.1          18.7               181   3750 male 
 2 Adelie  Torgersen           39.5          17.4               186   3800 fema…
 3 Adelie  Torgersen           40.3          18                 195   3250 fema…
 4 Adelie  Torgersen           36.7          19.3               193   3450 fema…
 5 Adelie  Torgersen           39.3          20.6               190   3650 male 
 6 Adelie  Torgersen           38.9          17.8               181   3625 fema…
 7 Adelie  Torgersen           39.2          19.6               195   4675 male 
 8 Adelie  Torgersen           41.1          17.6               182   3200 fema…
 9 Adelie  Torgersen           38.6          21.2               191   3800 male 
10 Adelie  Torgersen           34.6          21.1               198   4400 male 
# ℹ 323 more rows
# ℹ 1 more variable: year <int>

La sintaxis es siempre nuevo_nombre = nombre_actual.

Verbo 2

filter() · elegir filas

filter(): filas que cumplen una condición

filter(pinguinos, species == "Adelie")

# A tibble: 146 × 8
   species island    bill_length_mm bill_depth_mm flipper_length_mm body_mass_g
   <fct>   <fct>              <dbl>         <dbl>             <int>       <int>
 1 Adelie  Torgersen           39.1          18.7               181        3750
 2 Adelie  Torgersen           39.5          17.4               186        3800
 3 Adelie  Torgersen           40.3          18                 195        3250
 4 Adelie  Torgersen           36.7          19.3               193        3450
 5 Adelie  Torgersen           39.3          20.6               190        3650
 6 Adelie  Torgersen           38.9          17.8               181        3625
 7 Adelie  Torgersen           39.2          19.6               195        4675
 8 Adelie  Torgersen           41.1          17.6               182        3200
 9 Adelie  Torgersen           38.6          21.2               191        3800
10 Adelie  Torgersen           34.6          21.1               198        4400
# ℹ 136 more rows
# ℹ 2 more variables: sex <fct>, year <int>

Usa == para comparar igualdad (no =). Los operadores habituales: == igual, != distinto, >, <, >=, <=.

filter(): varias condiciones con AND

Separar condiciones con , equivale a AND (se deben cumplir todas):

filter(pinguinos, species == "Adelie", body_mass_g > 4000)

# A tibble: 34 × 8
   species island    bill_length_mm bill_depth_mm flipper_length_mm body_mass_g
   <fct>   <fct>              <dbl>         <dbl>             <int>       <int>
 1 Adelie  Torgersen           39.2          19.6               195        4675
 2 Adelie  Torgersen           34.6          21.1               198        4400
 3 Adelie  Torgersen           42.5          20.7               197        4500
 4 Adelie  Torgersen           46            21.5               194        4200
 5 Adelie  Dream               39.2          21.1               196        4150
 6 Adelie  Dream               39.8          19.1               184        4650
 7 Adelie  Dream               44.1          19.7               196        4400
 8 Adelie  Dream               39.6          18.8               190        4600
 9 Adelie  Dream               42.3          21.2               191        4150
10 Adelie  Biscoe              40.1          18.9               188        4300
# ℹ 24 more rows
# ℹ 2 more variables: sex <fct>, year <int>

filter(): condiciones con OR

El operador | significa OR (basta con que se cumpla al menos una):

filter(pinguinos, species == "Chinstrap" | body_mass_g > 5500)

# A tibble: 96 × 8
   species island bill_length_mm bill_depth_mm flipper_length_mm body_mass_g
   <fct>   <fct>           <dbl>         <dbl>             <int>       <int>
 1 Gentoo  Biscoe           50            16.3               230        5700
 2 Gentoo  Biscoe           50            15.2               218        5700
 3 Gentoo  Biscoe           49            16.1               216        5550
 4 Gentoo  Biscoe           48.4          14.6               213        5850
 5 Gentoo  Biscoe           49.3          15.7               217        5850
 6 Gentoo  Biscoe           49.2          15.2               221        6300
 7 Gentoo  Biscoe           50.2          14.3               218        5700
 8 Gentoo  Biscoe           47.8          15                 215        5650
 9 Gentoo  Biscoe           50            15.3               220        5550
10 Gentoo  Biscoe           59.6          17                 230        6050
# ℹ 86 more rows
# ℹ 2 more variables: sex <fct>, year <int>

filter(): el operador %in%

%in% comprueba si un valor pertenece a un conjunto. Es más limpio que escribir varios OR:

# Sin %in%: repetitivo
filter(pinguinos, species == "Adelie" | species == "Chinstrap")

Es equivalente a:

# Con %in%: más claro
filter(pinguinos, species %in% c("Adelie", "Chinstrap"))

# A tibble: 214 × 8
   species island    bill_length_mm bill_depth_mm flipper_length_mm body_mass_g
   <fct>   <fct>              <dbl>         <dbl>             <int>       <int>
 1 Adelie  Torgersen           39.1          18.7               181        3750
 2 Adelie  Torgersen           39.5          17.4               186        3800
 3 Adelie  Torgersen           40.3          18                 195        3250
 4 Adelie  Torgersen           36.7          19.3               193        3450
 5 Adelie  Torgersen           39.3          20.6               190        3650
 6 Adelie  Torgersen           38.9          17.8               181        3625
 7 Adelie  Torgersen           39.2          19.6               195        4675
 8 Adelie  Torgersen           41.1          17.6               182        3200
 9 Adelie  Torgersen           38.6          21.2               191        3800
10 Adelie  Torgersen           34.6          21.1               198        4400
# ℹ 204 more rows
# ℹ 2 more variables: sex <fct>, year <int>
…
¿Se incluiría una hembra que pesa 4100 g en cada caso?

¿Y un macho que pesa 5000 g?

Verbo 3

mutate() · crear y transformar columnas

mutate(): crear una columna nueva

mutate(pinguinos, body_mass_kg = body_mass_g / 1000)

# A tibble: 333 × 9
   species island    bill_length_mm bill_depth_mm flipper_length_mm body_mass_g
   <fct>   <fct>              <dbl>         <dbl>             <int>       <int>
 1 Adelie  Torgersen           39.1          18.7               181        3750
 2 Adelie  Torgersen           39.5          17.4               186        3800
 3 Adelie  Torgersen           40.3          18                 195        3250
 4 Adelie  Torgersen           36.7          19.3               193        3450
 5 Adelie  Torgersen           39.3          20.6               190        3650
 6 Adelie  Torgersen           38.9          17.8               181        3625
 7 Adelie  Torgersen           39.2          19.6               195        4675
 8 Adelie  Torgersen           41.1          17.6               182        3200
 9 Adelie  Torgersen           38.6          21.2               191        3800
10 Adelie  Torgersen           34.6          21.1               198        4400
# ℹ 323 more rows
# ℹ 3 more variables: sex <fct>, year <int>, body_mass_kg <dbl>

La nueva columna se añade al final. El data frame original no cambia.

mutate(): sobreescribir una columna existente

Si usas el nombre de una columna que ya existe, la sobreescribe:

mutate(pinguinos, body_mass_g = body_mass_g / 1000)

# A tibble: 333 × 8
   species island    bill_length_mm bill_depth_mm flipper_length_mm body_mass_g
   <fct>   <fct>              <dbl>         <dbl>             <int>       <dbl>
 1 Adelie  Torgersen           39.1          18.7               181        3.75
 2 Adelie  Torgersen           39.5          17.4               186        3.8 
 3 Adelie  Torgersen           40.3          18                 195        3.25
 4 Adelie  Torgersen           36.7          19.3               193        3.45
 5 Adelie  Torgersen           39.3          20.6               190        3.65
 6 Adelie  Torgersen           38.9          17.8               181        3.62
 7 Adelie  Torgersen           39.2          19.6               195        4.68
 8 Adelie  Torgersen           41.1          17.6               182        3.2 
 9 Adelie  Torgersen           38.6          21.2               191        3.8 
10 Adelie  Torgersen           34.6          21.1               198        4.4 
# ℹ 323 more rows
# ℹ 2 more variables: sex <fct>, year <int>
…
mutate() + case_when(): recodificar

case_when() evalúa condiciones de arriba a abajo y asigna el valor de la primera que se cumpla:

mutate(
    pinguinos,
    tamano = case_when(
        body_mass_g >= 5000 ~ "Grande",
        body_mass_g >= 3500 ~ "Mediano",
        .default = "Pequeño"
    )
)

# A tibble: 333 × 9
   species island    bill_length_mm bill_depth_mm flipper_length_mm body_mass_g
   <fct>   <fct>              <dbl>         <dbl>             <int>       <int>
 1 Adelie  Torgersen           39.1          18.7               181        3750
 2 Adelie  Torgersen           39.5          17.4               186        3800
 3 Adelie  Torgersen           40.3          18                 195        3250
 4 Adelie  Torgersen           36.7          19.3               193        3450
 5 Adelie  Torgersen           39.3          20.6               190        3650
 6 Adelie  Torgersen           38.9          17.8               181        3625
 7 Adelie  Torgersen           39.2          19.6               195        4675
 8 Adelie  Torgersen           41.1          17.6               182        3200
 9 Adelie  Torgersen           38.6          21.2               191        3800
10 Adelie  Torgersen           34.6          21.1               198        4400
# ℹ 323 more rows
# ℹ 3 more variables: sex <fct>, year <int>, tamano <chr>
…
group_by() + mutate(): calcular dentro de grupos

A diferencia de summarise(), mutate() devuelve una fila por observación original:

por_especie <- group_by(pinguinos, species)
mutate(por_especie, masa_vs_especie = body_mass_g - mean(body_mass_g))

# A tibble: 333 × 9
# Groups:   species [3]
   species island    bill_length_mm bill_depth_mm flipper_length_mm body_mass_g
   <fct>   <fct>              <dbl>         <dbl>             <int>       <int>
 1 Adelie  Torgersen           39.1          18.7               181        3750
 2 Adelie  Torgersen           39.5          17.4               186        3800
 3 Adelie  Torgersen           40.3          18                 195        3250
 4 Adelie  Torgersen           36.7          19.3               193        3450
 5 Adelie  Torgersen           39.3          20.6               190        3650
 6 Adelie  Torgersen           38.9          17.8               181        3625
 7 Adelie  Torgersen           39.2          19.6               195        4675
 8 Adelie  Torgersen           41.1          17.6               182        3200
 9 Adelie  Torgersen           38.6          21.2               191        3800
10 Adelie  Torgersen           34.6          21.1               198        4400
# ℹ 323 more rows
# ℹ 3 more variables: sex <fct>, year <int>, masa_vs_especie <dbl>
…
